<?xml version="1.0" encoding="UTF-8"?>
<svg width="300" height="165" version="1.1" viewBox="0 0 300 165" xmlns="http://www.w3.org/2000/svg">
 <rect x=".31474" y=".31476" width="299.37" height="164.27" fill="#e1e1e1" fill-opacity=".25" fill-rule="evenodd" stroke="#000" stroke-width=".62947"/>
 <path d="m243.38 76.093c0 33.761-27.369 61.13-61.13 61.13s-61.13-27.369-61.13-61.13c0-33.761 27.369-61.13 61.13-61.13s61.13 27.369 61.13 61.13z" fill="#00f" fill-opacity=".3046" fill-rule="evenodd" stroke="#000" stroke-opacity=".33" stroke-width="1.6595"/>
 <path d="m183.34 76.092c0-33.761-27.369-61.13-61.13-61.13-33.761 0-61.13 27.369-61.13 61.13 0 33.761 27.369 61.13 61.13 61.13 33.761 0 61.13-27.369 61.13-61.13z" fill="#ff00f5" fill-opacity=".28161" fill-rule="evenodd" stroke="#000" stroke-opacity=".32759" stroke-width="1.6595"/>
 <text x="92.967438" y="151.44952" fill="#ff00f7" fill-opacity=".5977" font-family="'Liberation Sans',Arial,sans-serif" font-size="11.772px" font-weight="bold" stroke-width="2.9431pt" style="line-height:0%" xml:space="preserve"><tspan x="92.967438" y="151.44952" dx="0 0 0 0 0 0 0 0" dy="0 0 0 0 0 0 0 0" fill="#ff00f7" fill-opacity=".5977" font-size="9.8104px" stroke-width="2.9431pt" style="line-height:1">要素</tspan></text>
 <text x="158.29549" y="151.44952" fill="#0000ff" fill-opacity=".6" font-family="'Liberation Sans',Arial,sans-serif" font-size="11.772px" font-weight="bold" stroke-width="2.9431pt" style="line-height:0%" xml:space="preserve"><tspan x="158.29549" y="151.44952" dx="0 0 0 0 0 0 0 0 0 0" dy="0 0 0 0 0 0 0 0 0 0" fill="#0000ff" fill-opacity=".6" font-size="9.8104px" stroke-width="2.9431pt" style="line-height:1">原則</tspan></text>
 <text x="81.711914" y="98.235756" fill="#000000" font-family="'Liberation Sans',Arial,sans-serif" font-size="11.772px" stroke-width="2.9431pt" style="line-height:0%" xml:space="preserve"><tspan x="81.711914" y="98.235756" dx="0 0 0 0" dy="0 0 0 0" font-size="7.8483px" stroke-width="2.9431pt" style="line-height:1">顏色</tspan></text>
 <text x="107.54029" y="32.026802" fill="#000000" font-family="'Liberation Sans',Arial,sans-serif" font-size="11.772px" stroke-width="2.9431pt" style="line-height:0%" xml:space="preserve"><tspan x="107.54029" y="32.026802" dx="0 0 0 0" dy="0 0 0 0" font-size="7.8483px" stroke-width="2.9431pt" style="line-height:1">線條</tspan></text>
 <text x="86.382683" y="46.663303" fill="#000000" font-family="'Liberation Sans',Arial,sans-serif" font-size="11.772px" stroke-width="2.9431pt" style="line-height:0%" xml:space="preserve"><tspan x="86.382683" y="46.663303" dx="0 0 0 0" dy="0 0 0 0" font-size="7.8483px" stroke-width="2.9431pt" style="line-height:1">形狀</tspan></text>
 <text x="74.759689" y="81.527863" fill="#000000" font-family="'Liberation Sans',Arial,sans-serif" font-size="11.772px" stroke-width="2.9431pt" style="line-height:0%" xml:space="preserve"><tspan x="74.759689" y="81.527863" dx="0 0 0 0 0" dy="0 0 0 0 0" font-size="7.8483px" stroke-width="2.9431pt" style="line-height:1">空間</tspan></text>
 <text x="92.140251" y="112.81284" fill="#000000" font-family="'Liberation Sans',Arial,sans-serif" font-size="11.772px" stroke-width="2.9431pt" style="line-height:0%" xml:space="preserve"><tspan x="92.140251" y="112.81284" dx="0 0 0 0 0 0 0" dy="0 0 0 0 0 0 0" font-size="7.8483px" stroke-width="2.9431pt" style="line-height:1">紋理</tspan></text>
 <text x="109.52083" y="126.71722" fill="#000000" font-family="'Liberation Sans',Arial,sans-serif" font-size="11.772px" stroke-width="2.9431pt" style="line-height:0%" xml:space="preserve"><tspan x="109.52083" y="126.71722" dx="0 0 0 0 0" dy="0 0 0 0 0" font-size="7.8483px" stroke-width="2.9431pt" style="line-height:1">明暗</tspan></text>
 <text x="74.759689" y="64.147301" fill="#000000" font-family="'Liberation Sans',Arial,sans-serif" font-size="11.772px" stroke-width="2.9431pt" style="line-height:0%" xml:space="preserve"><tspan x="74.759689" y="64.147301" dx="0 0 0 0" dy="0 0 0 0" font-size="7.8483px" stroke-width="2.9431pt" style="line-height:1">大小</tspan></text>
 <text x="173.47408" y="33.980919" fill="#000000" font-family="'Liberation Sans',Arial,sans-serif" font-size="11.772px" stroke-width="2.9431pt" style="line-height:0%" xml:space="preserve"><tspan x="173.47408" y="33.980919" dx="0 0 0 0 0 0 0" dy="0 0 0 0 0 0 0" font-size="7.8483px" stroke-width="2.9431pt" style="line-height:1">平衡</tspan></text>
 <text x="183.67584" y="50.635559" fill="#000000" font-family="'Liberation Sans',Arial,sans-serif" font-size="11.772px" stroke-width="2.9431pt" style="line-height:0%" xml:space="preserve"><tspan x="183.67584" y="50.635559" dx="0 0 0 0 0 0 0 0" dy="0 0 0 0 0 0 0 0" font-size="7.8483px" stroke-width="2.9431pt" style="line-height:1">對比</tspan></text>
 <text x="188.77679" y="70.093987" fill="#000000" font-family="'Liberation Sans',Arial,sans-serif" font-size="11.772px" stroke-width="2.9431pt" style="line-height:0%" xml:space="preserve"><tspan x="188.77679" y="70.093987" dx="0 0 0 0 0 0 0 0" dy="0 0 0 0 0 0 0 0" font-size="7.8483px" stroke-width="2.9431pt" style="line-height:1">強調</tspan></text>
 <text x="188.55032" y="89.552307" fill="#000000" font-family="'Liberation Sans',Arial,sans-serif" font-size="11.772px" stroke-width="2.9431pt" style="line-height:0%" xml:space="preserve"><tspan x="188.55032" y="89.552307" dx="0 0 0 0 0 0 0 0 0 0" dy="0 0 0 0 0 0 0 0 0 0" font-size="7.8483px" stroke-width="2.9431pt" style="line-height:1">比例</tspan></text>
 <text x="182.99644" y="109.01069" fill="#000000" font-family="'Liberation Sans',Arial,sans-serif" font-size="11.772px" stroke-width="2.9431pt" style="line-height:0%" xml:space="preserve"><tspan x="182.99644" y="109.01069" dx="0 0 0 0 0 0 0" dy="0 0 0 0 0 0 0" font-size="7.8483px" stroke-width="2.9431pt" style="line-height:1">圖案</tspan></text>
 <text transform="scale(1 .99997)" x="168.14247" y="126.60123" fill="#000000" font-family="'Liberation Sans',Arial,sans-serif" font-size="11.772px" stroke-width="2.9431pt" style="line-height:0%" xml:space="preserve"><tspan x="168.14247" y="126.60123" dx="0 0 0 0 0 0 0 0 0" dy="0 0 0 0 0 0 0 0 0" font-size="7.8481px" stroke-width="2.9431pt" style="line-height:1">層次</tspan></text>
 <text x="124.19861" y="79.084373" fill="#ffffff" font-family="'Liberation Sans',Arial,sans-serif" font-size="11.772px" font-weight="bold" stroke-width="2.9431pt" style="line-height:0%" xml:space="preserve"><tspan x="124.19861" y="79.084373" dx="0 0 0 0 0 0 0 0 0 0 0" dy="0 0 0 0 0 0 0 0 0 0 0" fill="#ffffff" font-size="7.8483px" stroke-width="2.9431pt" style="line-height:1">組合</tspan></text>
 <text x="5.103054" y="12.210741" fill="#000000" fill-opacity=".21476" font-family="'Liberation Sans',Arial,sans-serif" font-size="11.772px" font-weight="bold" stroke-width="2.9431pt" style="line-height:0%" xml:space="preserve"><tspan x="5.103054" y="12.210741" dx="0 0 0 0 0 0 0 0" dy="0 0 0 0 0 0 0 0" fill="#000000" fill-opacity=".21476" font-size="9.8104px" stroke-width="2.9431pt" style="line-height:1">概要</tspan></text>
</svg>
