<?xml version="1.0" encoding="UTF-8"?>
<svg width="300" height="100" version="1.1" viewBox="0 0 300 100" xmlns="http://www.w3.org/2000/svg">
 <rect x=".24455" y=".24454" width="299.51" height="99.125" fill="none" stroke="#000" stroke-width=".4891"/>
 <text transform="scale(.99998 1)" x="67.585907" y="93.976639" fill="#000000" font-family="'Liberation Sans',Arial,sans-serif" font-size="11.778px" font-weight="bold" stroke-width="2.9445pt" style="line-height:0%" xml:space="preserve"><tspan x="67.585907" y="93.976639" dx="0 0 0 0 0 0 0 0" dy="0 0 0 0 0 0 0 0" fill="#000000" font-size="120.04px" stroke-width="2.9445pt" style="line-height:1">BESAR</tspan></text>
 <text transform="scale(.99998 1)" x="41.980042" y="93.882477" fill="#000000" font-family="'Liberation Sans',Arial,sans-serif" font-size="11.778px" font-weight="bold" stroke-width="2.9445pt" style="line-height:0%" xml:space="preserve"><tspan x="41.980042" y="93.882477" dx="0 0 0 0 0 0 0 0 0 0 0 0" dy="0 0 0 0 0 0 0 0 0 0 0 0" fill="#000000" font-size="9.8902px" stroke-width="2.9445pt" style="line-height:1">kecil</tspan></text>
</svg>
